<svg width="181" height="30" viewBox="0 0 181 30" fill="none" xmlns="http://www.w3.org/2000/svg">
<path fill-rule="evenodd" clip-rule="evenodd" d="M16.885 2.93203C18.6848 4.80678 19.697 7.34869 19.6997 10C22.2458 10 24.6875 11.0536 26.4879 12.9289C28.2882 14.8043 29.2996 17.3478 29.2996 20C29.2996 22.6522 28.2882 25.1957 26.4879 27.0711C24.6875 28.9464 22.2458 30 19.6997 30H0.5V0H10.0999C12.6451 0.00280117 15.0853 1.05727 16.885 2.93203ZM10.0999 2.49735H2.89743L2.87711 13.3915C2.96644 13.3011 3.05192 13.2107 3.13614 13.1217C3.21952 13.0335 3.30165 12.9467 3.38504 12.8624C5.17276 11.0223 7.58659 9.99329 10.0999 10H17.2871V9.55026C17.1747 7.64304 16.3689 5.85207 15.0337 4.54182C13.6985 3.23157 11.9342 2.50049 10.0999 2.49735ZM14.2566 16.1207C15.4723 15.2247 16.3924 13.9592 16.8909 12.4974H10.0999C8.6103 12.4991 7.15777 12.9811 5.9418 13.8773C4.72583 14.7736 3.80607 16.04 3.30885 17.5026H10.0999C11.5891 17.4994 13.0409 17.0167 14.2566 16.1207ZM2.89743 27.5132H19.6997C21.6106 27.5329 23.4507 26.761 24.8152 25.3674C26.1798 23.9737 26.957 22.0725 26.9758 20.082C26.9947 18.0915 26.2537 16.1747 24.9158 14.7533C23.5779 13.3319 21.7528 12.5223 19.8419 12.5026H19.395C19.1911 13.3185 18.889 14.1043 18.4959 14.8413C17.6652 16.4029 16.4487 17.7048 14.9724 18.6118C13.4961 19.5189 11.8138 19.9982 10.0999 20H2.89743V27.5132Z" fill="#E1251B"/>
<path fill-rule="evenodd" clip-rule="evenodd" d="M57.9569 8.26976C55.8033 8.26976 53.8376 9.46023 52.3342 10.8306V3.75124H50.8916V21.5079H51.9583L52.2427 19.1586C53.7665 20.5449 55.7576 21.7248 57.9569 21.7248C60.7505 21.7248 63.153 19.492 63.153 14.9999C63.153 10.5079 60.7505 8.26976 57.9569 8.26976ZM57.9569 20.328C55.8439 20.328 53.9798 19.0052 52.3342 17.4126V12.4602C53.9798 10.9417 55.8439 9.67188 57.9569 9.67188C59.9531 9.67188 61.6851 11.4179 61.6851 14.9999C61.6851 18.5819 59.9531 20.328 57.9569 20.328Z" fill="#E1251B"/>
<path d="M68.2273 3.75124H66.7898V6.28034H68.2273V3.75124Z" fill="#E1251B"/>
<path d="M68.2273 8.48679H66.7898V21.5132H68.2273V8.48679Z" fill="#E1251B"/>
<path fill-rule="evenodd" clip-rule="evenodd" d="M78.2894 8.26978C75.1199 8.26978 71.8691 10.5026 71.8691 14.9999C71.8691 19.4973 75.1199 21.7248 78.2894 21.7248C81.4588 21.7248 84.7096 19.492 84.7096 14.9999C84.7096 10.5079 81.4588 8.26978 78.2894 8.26978ZM78.2894 20.328C75.8615 20.328 73.3574 18.5502 73.3574 14.9999C73.3574 11.4497 75.8615 9.6719 78.2894 9.6719C80.7173 9.6719 83.2163 11.4444 83.2163 14.9999C83.2163 18.5555 80.7122 20.328 78.2894 20.328Z" fill="#E1251B"/>
<path fill-rule="evenodd" clip-rule="evenodd" d="M95.4523 8.26978C93.258 8.26978 91.2619 9.50258 89.7482 10.9153L89.4536 8.46555H88.3717V26.2486H89.8143V19.238C91.3381 20.5872 93.2834 21.7248 95.437 21.7248C98.2357 21.7248 100.633 19.492 100.633 14.9999C100.633 10.5079 98.251 8.26978 95.4523 8.26978ZM95.4523 20.328C93.3444 20.328 91.4752 19.0052 89.8295 17.4126V12.4603C91.4752 10.9417 93.3444 9.6719 95.4523 9.6719C97.4484 9.6719 99.1805 11.4179 99.1805 14.9999C99.1805 18.5819 97.4484 20.328 95.4523 20.328Z" fill="#E1251B"/>
<path d="M111.584 8.26976C109.395 8.26976 107.521 9.41262 105.961 10.8094V3.75124H104.524V21.5079H105.961V12.4549C107.698 10.8253 109.517 9.67188 111.584 9.67188C113.479 9.67188 114.759 10.8253 114.759 13.1428V21.5079H116.196V13.1428C116.196 9.88352 114.332 8.26976 111.584 8.26976Z" fill="#E1251B"/>
<path d="M136.849 10.9101L136.554 8.4657H135.492V21.508H136.93V12.4763C138.235 10.9736 139.647 9.67205 141.435 9.67205C141.959 9.66735 142.478 9.7773 142.959 9.9948L143.518 8.61914C142.924 8.41396 142.304 8.3051 141.679 8.29639C139.723 8.29639 138.2 9.42867 136.849 10.9101Z" fill="#E1251B"/>
<path d="M161.26 8.26978C159.304 8.26978 157.516 9.50258 156.18 10.9735C155.53 9.16925 154.011 8.26978 152.117 8.26978C150.222 8.26978 148.592 9.43909 147.281 10.82L146.977 8.46555H145.91V21.5079H147.353V12.5132C148.577 11.0264 150.334 9.69306 152.097 9.69306C153.859 9.69306 155.078 10.7142 155.078 13.3968V21.5079H156.521V13.1428C156.521 12.9259 156.521 12.7248 156.495 12.5237C157.719 11.0211 159.492 9.6719 161.26 9.6719C163.027 9.6719 164.246 10.6931 164.246 13.3756V21.5079H165.684V13.1428C165.684 9.88354 163.82 8.26978 161.26 8.26978Z" fill="#E1251B"/>
<path fill-rule="evenodd" clip-rule="evenodd" d="M126.217 8.26978C123.713 8.26978 122.088 9.13221 120.381 10.2327L121.098 11.3915C123.018 10.1534 124.11 9.6137 126.177 9.6137C128.071 9.6137 129.565 10.6401 129.565 13.492V15.1534C128.132 14.1352 126.448 13.5677 124.714 13.5185C122.047 13.5185 119.675 15.0264 119.675 17.6878C119.675 20.3491 121.621 21.7248 124.099 21.7248C126.344 21.7248 128.163 20.5026 129.636 19.0317L129.936 21.5079H131.002V13.1428C130.987 9.88354 128.96 8.26978 126.217 8.26978ZM124.379 20.3809C122.591 20.3809 121.128 19.492 121.128 17.6878C121.128 15.8835 122.515 14.8624 124.684 14.8624C126.434 14.9095 128.128 15.5174 129.534 16.6031V17.5819C127.99 19.1216 126.289 20.3809 124.379 20.3809Z" fill="#E1251B"/>
<path fill-rule="evenodd" clip-rule="evenodd" d="M175.705 8.26978C173.201 8.26978 171.576 9.13221 169.869 10.2327L170.59 11.3915C172.505 10.1534 173.597 9.6137 175.67 9.6137C177.564 9.6137 179.057 10.6401 179.057 13.492V15.1534C177.626 14.1362 175.944 13.5687 174.212 13.5185C171.545 13.5185 169.173 15.0264 169.173 17.6878C169.173 20.3491 171.119 21.7248 173.597 21.7248C175.842 21.7248 177.661 20.5026 179.134 19.0317L179.433 21.5079H180.5V13.1428C180.475 9.88354 178.448 8.26978 175.705 8.26978ZM173.866 20.3809C172.079 20.3809 170.616 19.492 170.616 17.6878C170.616 15.8835 172.002 14.8624 174.171 14.8624C175.922 14.9085 177.616 15.5164 179.022 16.6031V17.5819C177.478 19.1216 175.776 20.3809 173.866 20.3809Z" fill="#E1251B"/>
</svg>
