<svg width="26" height="17" viewBox="0 0 26 17" fill="none" xmlns="http://www.w3.org/2000/svg">
<rect y="0.957031" width="25.6" height="8" fill="#00C2FF"/>
<rect y="8.95703" width="25.6" height="8" fill="#FFD600"/>
</svg>
