<svg width="43" height="42" viewBox="0 0 43 42" fill="none" xmlns="http://www.w3.org/2000/svg">
<path fill-rule="evenodd" clip-rule="evenodd" d="M0.333252 0V41.9991H27.2502C27.3037 41.9997 27.3574 42 27.4111 42C27.4648 42 27.5184 41.9997 27.572 41.9991H42.3324V27.2387C42.333 27.1852 42.3333 27.1315 42.3333 27.0778C42.3333 27.0241 42.333 26.9705 42.3324 26.9169V0H0.333252ZM41.3557 21.7543V0.976724H1.30998V41.0224H22.0876C16.4751 38.8785 12.4889 33.4437 12.4889 27.0778C12.4889 18.8365 19.1698 12.1556 27.4111 12.1556C33.7769 12.1556 39.2118 16.1418 41.3557 21.7543ZM27.5666 41.0224H27.2555C19.6253 40.939 13.4656 34.7278 13.4656 27.0778C13.4656 19.376 19.7092 13.1324 27.4111 13.1324C35.061 13.1324 41.2723 19.2921 41.3557 26.9223V27.2334C41.2729 34.8118 35.145 40.9396 27.5666 41.0224ZM32.7346 41.0224H41.3557V32.4013C39.8434 36.3603 36.6936 39.5101 32.7346 41.0224Z" fill="white"/>
</svg>
